{
  "key": "${add-on.key}",
  "baseUrl": "http://localhost:${add-on.undefined-port}",
  "authentication": {
    "type": "jwt"
  },
  "lifecycle": {
    "installed": "/custom-installed",
    "uninstalled": "/custom-uninstalled"
  }
}
